Compression and decompression: [time in seconds]

0: 67.382280
1: 66.115038
2: 65.795471
3: 67.360215
4: 66.250536
5: 65.870358
6: 65.805182
7: 65.691205
8: 65.760360
9: 65.900395
10: 65.874316
11: 65.750032
12: 66.487470
13: 65.740685
14: 66.052320
15: 67.251872
16: 66.104218
17: 67.705561
18: 68.045160
19: 66.758113
20: 66.698076
21: 65.980937
22: 67.246275
23: 67.858179
24: 66.241215
25: 67.144580
26: 66.374913
27: 65.927207
28: 66.085483
29: 65.991068
30: 65.757600
31: 65.768589
32: 65.813284
33: 66.353336
34: 66.333208
35: 65.745379
36: 65.691090
37: 65.621037
38: 65.647531
39: 65.784868
40: 65.800153
41: 65.686738
42: 65.891504
43: 65.862219
44: 65.615380
45: 65.865498
46: 65.808937
47: 65.727500
48: 65.965634
49: 67.030876
50: 66.616504
51: 67.211895
52: 66.869397
53: 66.789096
54: 66.891297
55: 67.087909
56: 67.133037
57: 67.498689
58: 67.805520
59: 66.868591
60: 67.349034
61: 67.171178
62: 67.511387
63: 67.584823
64: 68.979378
65: 66.869169
66: 68.146531
67: 67.622303
68: 66.146127
69: 66.208656
70: 67.197587
71: 66.443424
72: 65.930454
73: 65.802003
74: 65.753134
75: 66.599682
76: 65.838115
77: 65.975909
78: 67.110371
79: 65.926857
80: 65.861615
81: 65.920379
82: 65.680855
83: 65.881838
84: 65.839887
85: 65.682220
86: 65.631073
87: 66.019748
88: 67.555365
89: 67.882428
90: 67.000878
91: 67.726633
92: 67.298818
93: 66.613660
94: 66.146858
95: 67.486557
96: 67.440774
97: 68.188179
98: 70.128818
99: 70.052134

Slowest: 70.128818
Fastest: 65.615380
Average: 66.579959
Median: 66.241215

Compression ratio: 1.54233
Byte size: 648370867