^C:\TEMP\INCLUDE\GA\GA1DARRAYGENOME.C|C:\TEMP\INCLUDE\GA\GA2DARRAYGENOME.C|C:\TEMP\INCLUDE\GA\GA3DARRAYGENOME.C|C:\TEMP\INCLUDE\GA\GAALLELE.C|C:\TEMP\INCLUDE\GA\GALIST.C|C:\TEMP\INCLUDE\GA\GALISTGENOME.C|C:\TEMP\INCLUDE\GA\GAREALGENOME.C|C:\TEMP\INCLUDE\GA\GASTRINGGENOME.C|C:\TEMP\INCLUDE\GA\GATREE.C|C:\TEMP\INCLUDE\GA\GATREEGENOME.C|C:\USERS\KASI\DOCUMENTS\FH_TECHNIKUM_WIEN\MASTERTHESIS\GIT\MASTERTHESIS_PRACTICAL\EVO_HUFF\EVO_HUFF\EVO_HUFF.CPP
C:\USERS\KASI\DOCUMENTS\FH_TECHNIKUM_WIEN\MASTERTHESIS\GIT\MASTERTHESIS_PRACTICAL\EVO_HUFF\EVO_HUFF\X64\DEBUG\VC142.PDB
C:\USERS\KASI\DOCUMENTS\FH_TECHNIKUM_WIEN\MASTERTHESIS\GIT\MASTERTHESIS_PRACTICAL\EVO_HUFF\EVO_HUFF\X64\DEBUG\VC142.IDB
C:\USERS\KASI\DOCUMENTS\FH_TECHNIKUM_WIEN\MASTERTHESIS\GIT\MASTERTHESIS_PRACTICAL\EVO_HUFF\EVO_HUFF\X64\DEBUG\EVO_HUFF.OBJ
C:\USERS\KASI\DOCUMENTS\FH_TECHNIKUM_WIEN\MASTERTHESIS\GIT\MASTERTHESIS_PRACTICAL\EVO_HUFF\EVO_HUFF\X64\DEBUG\GATREEGENOME.OBJ
C:\USERS\KASI\DOCUMENTS\FH_TECHNIKUM_WIEN\MASTERTHESIS\GIT\MASTERTHESIS_PRACTICAL\EVO_HUFF\EVO_HUFF\X64\DEBUG\GATREE.OBJ
C:\USERS\KASI\DOCUMENTS\FH_TECHNIKUM_WIEN\MASTERTHESIS\GIT\MASTERTHESIS_PRACTICAL\EVO_HUFF\EVO_HUFF\X64\DEBUG\GASTRINGGENOME.OBJ
C:\USERS\KASI\DOCUMENTS\FH_TECHNIKUM_WIEN\MASTERTHESIS\GIT\MASTERTHESIS_PRACTICAL\EVO_HUFF\EVO_HUFF\X64\DEBUG\GAREALGENOME.OBJ
C:\USERS\KASI\DOCUMENTS\FH_TECHNIKUM_WIEN\MASTERTHESIS\GIT\MASTERTHESIS_PRACTICAL\EVO_HUFF\EVO_HUFF\X64\DEBUG\GALISTGENOME.OBJ
C:\USERS\KASI\DOCUMENTS\FH_TECHNIKUM_WIEN\MASTERTHESIS\GIT\MASTERTHESIS_PRACTICAL\EVO_HUFF\EVO_HUFF\X64\DEBUG\GALIST.OBJ
C:\USERS\KASI\DOCUMENTS\FH_TECHNIKUM_WIEN\MASTERTHESIS\GIT\MASTERTHESIS_PRACTICAL\EVO_HUFF\EVO_HUFF\X64\DEBUG\GAALLELE.OBJ
C:\USERS\KASI\DOCUMENTS\FH_TECHNIKUM_WIEN\MASTERTHESIS\GIT\MASTERTHESIS_PRACTICAL\EVO_HUFF\EVO_HUFF\X64\DEBUG\GA3DARRAYGENOME.OBJ
C:\USERS\KASI\DOCUMENTS\FH_TECHNIKUM_WIEN\MASTERTHESIS\GIT\MASTERTHESIS_PRACTICAL\EVO_HUFF\EVO_HUFF\X64\DEBUG\GA2DARRAYGENOME.OBJ
C:\USERS\KASI\DOCUMENTS\FH_TECHNIKUM_WIEN\MASTERTHESIS\GIT\MASTERTHESIS_PRACTICAL\EVO_HUFF\EVO_HUFF\X64\DEBUG\GA1DARRAYGENOME.OBJ
^C:\TEMP\INCLUDE\GA\GA1DARRAYGENOME.C
C:\USERS\KASI\DOCUMENTS\FH_TECHNIKUM_WIEN\MASTERTHESIS\GIT\MASTERTHESIS_PRACTICAL\EVO_HUFF\EVO_HUFF\X64\DEBUG\VC142.PDB
^C:\TEMP\INCLUDE\GA\GA2DARRAYGENOME.C
C:\USERS\KASI\DOCUMENTS\FH_TECHNIKUM_WIEN\MASTERTHESIS\GIT\MASTERTHESIS_PRACTICAL\EVO_HUFF\EVO_HUFF\X64\DEBUG\VC142.PDB
^C:\TEMP\INCLUDE\GA\GA3DARRAYGENOME.C
C:\USERS\KASI\DOCUMENTS\FH_TECHNIKUM_WIEN\MASTERTHESIS\GIT\MASTERTHESIS_PRACTICAL\EVO_HUFF\EVO_HUFF\X64\DEBUG\VC142.PDB
^C:\TEMP\INCLUDE\GA\GAALLELE.C
C:\USERS\KASI\DOCUMENTS\FH_TECHNIKUM_WIEN\MASTERTHESIS\GIT\MASTERTHESIS_PRACTICAL\EVO_HUFF\EVO_HUFF\X64\DEBUG\VC142.PDB
^C:\TEMP\INCLUDE\GA\GALIST.C
C:\USERS\KASI\DOCUMENTS\FH_TECHNIKUM_WIEN\MASTERTHESIS\GIT\MASTERTHESIS_PRACTICAL\EVO_HUFF\EVO_HUFF\X64\DEBUG\VC142.PDB
^C:\TEMP\INCLUDE\GA\GALISTGENOME.C
C:\USERS\KASI\DOCUMENTS\FH_TECHNIKUM_WIEN\MASTERTHESIS\GIT\MASTERTHESIS_PRACTICAL\EVO_HUFF\EVO_HUFF\X64\DEBUG\VC142.PDB
^C:\TEMP\INCLUDE\GA\GAREALGENOME.C
C:\USERS\KASI\DOCUMENTS\FH_TECHNIKUM_WIEN\MASTERTHESIS\GIT\MASTERTHESIS_PRACTICAL\EVO_HUFF\EVO_HUFF\X64\DEBUG\VC142.PDB
^C:\TEMP\INCLUDE\GA\GASTRINGGENOME.C
C:\USERS\KASI\DOCUMENTS\FH_TECHNIKUM_WIEN\MASTERTHESIS\GIT\MASTERTHESIS_PRACTICAL\EVO_HUFF\EVO_HUFF\X64\DEBUG\VC142.PDB
^C:\TEMP\INCLUDE\GA\GATREE.C
C:\USERS\KASI\DOCUMENTS\FH_TECHNIKUM_WIEN\MASTERTHESIS\GIT\MASTERTHESIS_PRACTICAL\EVO_HUFF\EVO_HUFF\X64\DEBUG\VC142.PDB
^C:\TEMP\INCLUDE\GA\GATREEGENOME.C
C:\USERS\KASI\DOCUMENTS\FH_TECHNIKUM_WIEN\MASTERTHESIS\GIT\MASTERTHESIS_PRACTICAL\EVO_HUFF\EVO_HUFF\X64\DEBUG\VC142.PDB
^C:\USERS\KASI\DOCUMENTS\FH_TECHNIKUM_WIEN\MASTERTHESIS\GIT\MASTERTHESIS_PRACTICAL\EVO_HUFF\EVO_HUFF\INCLUDE\HUFFMAN\BUFIO.C|C:\USERS\KASI\DOCUMENTS\FH_TECHNIKUM_WIEN\MASTERTHESIS\GIT\MASTERTHESIS_PRACTICAL\EVO_HUFF\EVO_HUFF\INCLUDE\HUFFMAN\CONFIG.C|C:\USERS\KASI\DOCUMENTS\FH_TECHNIKUM_WIEN\MASTERTHESIS\GIT\MASTERTHESIS_PRACTICAL\EVO_HUFF\EVO_HUFF\INCLUDE\HUFFMAN\DECODER.C|C:\USERS\KASI\DOCUMENTS\FH_TECHNIKUM_WIEN\MASTERTHESIS\GIT\MASTERTHESIS_PRACTICAL\EVO_HUFF\EVO_HUFF\INCLUDE\HUFFMAN\ENCODER.C|C:\USERS\KASI\DOCUMENTS\FH_TECHNIKUM_WIEN\MASTERTHESIS\GIT\MASTERTHESIS_PRACTICAL\EVO_HUFF\EVO_HUFF\INCLUDE\HUFFMAN\ERRORS.C|C:\USERS\KASI\DOCUMENTS\FH_TECHNIKUM_WIEN\MASTERTHESIS\GIT\MASTERTHESIS_PRACTICAL\EVO_HUFF\EVO_HUFF\INCLUDE\HUFFMAN\HISTOGRAM.C|C:\USERS\KASI\DOCUMENTS\FH_TECHNIKUM_WIEN\MASTERTHESIS\GIT\MASTERTHESIS_PRACTICAL\EVO_HUFF\EVO_HUFF\INCLUDE\HUFFMAN\IO.C|C:\USERS\KASI\DOCUMENTS\FH_TECHNIKUM_WIEN\MASTERTHESIS\GIT\MASTERTHESIS_PRACTICAL\EVO_HUFF\EVO_HUFF\INCLUDE\HUFFMAN\MALLOC.C|C:\USERS\KASI\DOCUMENTS\FH_TECHNIKUM_WIEN\MASTERTHESIS\GIT\MASTERTHESIS_PRACTICAL\EVO_HUFF\EVO_HUFF\INCLUDE\HUFFMAN\SYMBOL.C|C:\USERS\KASI\DOCUMENTS\FH_TECHNIKUM_WIEN\MASTERTHESIS\GIT\MASTERTHESIS_PRACTICAL\EVO_HUFF\EVO_HUFF\INCLUDE\HUFFMAN\TREE.C
C:\USERS\KASI\DOCUMENTS\FH_TECHNIKUM_WIEN\MASTERTHESIS\GIT\MASTERTHESIS_PRACTICAL\EVO_HUFF\EVO_HUFF\X64\DEBUG\VC142.PDB
C:\USERS\KASI\DOCUMENTS\FH_TECHNIKUM_WIEN\MASTERTHESIS\GIT\MASTERTHESIS_PRACTICAL\EVO_HUFF\EVO_HUFF\X64\DEBUG\VC142.IDB
C:\USERS\KASI\DOCUMENTS\FH_TECHNIKUM_WIEN\MASTERTHESIS\GIT\MASTERTHESIS_PRACTICAL\EVO_HUFF\EVO_HUFF\X64\DEBUG\TREE.OBJ
C:\USERS\KASI\DOCUMENTS\FH_TECHNIKUM_WIEN\MASTERTHESIS\GIT\MASTERTHESIS_PRACTICAL\EVO_HUFF\EVO_HUFF\X64\DEBUG\SYMBOL.OBJ
C:\USERS\KASI\DOCUMENTS\FH_TECHNIKUM_WIEN\MASTERTHESIS\GIT\MASTERTHESIS_PRACTICAL\EVO_HUFF\EVO_HUFF\X64\DEBUG\MALLOC.OBJ
C:\USERS\KASI\DOCUMENTS\FH_TECHNIKUM_WIEN\MASTERTHESIS\GIT\MASTERTHESIS_PRACTICAL\EVO_HUFF\EVO_HUFF\X64\DEBUG\IO.OBJ
C:\USERS\KASI\DOCUMENTS\FH_TECHNIKUM_WIEN\MASTERTHESIS\GIT\MASTERTHESIS_PRACTICAL\EVO_HUFF\EVO_HUFF\X64\DEBUG\HISTOGRAM.OBJ
C:\USERS\KASI\DOCUMENTS\FH_TECHNIKUM_WIEN\MASTERTHESIS\GIT\MASTERTHESIS_PRACTICAL\EVO_HUFF\EVO_HUFF\X64\DEBUG\ERRORS.OBJ
C:\USERS\KASI\DOCUMENTS\FH_TECHNIKUM_WIEN\MASTERTHESIS\GIT\MASTERTHESIS_PRACTICAL\EVO_HUFF\EVO_HUFF\X64\DEBUG\ENCODER.OBJ
C:\USERS\KASI\DOCUMENTS\FH_TECHNIKUM_WIEN\MASTERTHESIS\GIT\MASTERTHESIS_PRACTICAL\EVO_HUFF\EVO_HUFF\X64\DEBUG\DECODER.OBJ
C:\USERS\KASI\DOCUMENTS\FH_TECHNIKUM_WIEN\MASTERTHESIS\GIT\MASTERTHESIS_PRACTICAL\EVO_HUFF\EVO_HUFF\X64\DEBUG\CONFIG.OBJ
C:\USERS\KASI\DOCUMENTS\FH_TECHNIKUM_WIEN\MASTERTHESIS\GIT\MASTERTHESIS_PRACTICAL\EVO_HUFF\EVO_HUFF\X64\DEBUG\BUFIO.OBJ
^C:\USERS\KASI\DOCUMENTS\FH_TECHNIKUM_WIEN\MASTERTHESIS\GIT\MASTERTHESIS_PRACTICAL\EVO_HUFF\EVO_HUFF\INCLUDE\HUFFMAN\BUFIO.C
C:\USERS\KASI\DOCUMENTS\FH_TECHNIKUM_WIEN\MASTERTHESIS\GIT\MASTERTHESIS_PRACTICAL\EVO_HUFF\EVO_HUFF\X64\DEBUG\VC142.PDB
^C:\USERS\KASI\DOCUMENTS\FH_TECHNIKUM_WIEN\MASTERTHESIS\GIT\MASTERTHESIS_PRACTICAL\EVO_HUFF\EVO_HUFF\INCLUDE\HUFFMAN\CONFIG.C
C:\USERS\KASI\DOCUMENTS\FH_TECHNIKUM_WIEN\MASTERTHESIS\GIT\MASTERTHESIS_PRACTICAL\EVO_HUFF\EVO_HUFF\X64\DEBUG\VC142.PDB
^C:\USERS\KASI\DOCUMENTS\FH_TECHNIKUM_WIEN\MASTERTHESIS\GIT\MASTERTHESIS_PRACTICAL\EVO_HUFF\EVO_HUFF\INCLUDE\HUFFMAN\DECODER.C
C:\USERS\KASI\DOCUMENTS\FH_TECHNIKUM_WIEN\MASTERTHESIS\GIT\MASTERTHESIS_PRACTICAL\EVO_HUFF\EVO_HUFF\X64\DEBUG\VC142.PDB
^C:\USERS\KASI\DOCUMENTS\FH_TECHNIKUM_WIEN\MASTERTHESIS\GIT\MASTERTHESIS_PRACTICAL\EVO_HUFF\EVO_HUFF\INCLUDE\HUFFMAN\ENCODER.C
C:\USERS\KASI\DOCUMENTS\FH_TECHNIKUM_WIEN\MASTERTHESIS\GIT\MASTERTHESIS_PRACTICAL\EVO_HUFF\EVO_HUFF\X64\DEBUG\VC142.PDB
^C:\USERS\KASI\DOCUMENTS\FH_TECHNIKUM_WIEN\MASTERTHESIS\GIT\MASTERTHESIS_PRACTICAL\EVO_HUFF\EVO_HUFF\INCLUDE\HUFFMAN\ERRORS.C
C:\USERS\KASI\DOCUMENTS\FH_TECHNIKUM_WIEN\MASTERTHESIS\GIT\MASTERTHESIS_PRACTICAL\EVO_HUFF\EVO_HUFF\X64\DEBUG\VC142.PDB
^C:\USERS\KASI\DOCUMENTS\FH_TECHNIKUM_WIEN\MASTERTHESIS\GIT\MASTERTHESIS_PRACTICAL\EVO_HUFF\EVO_HUFF\INCLUDE\HUFFMAN\HISTOGRAM.C
C:\USERS\KASI\DOCUMENTS\FH_TECHNIKUM_WIEN\MASTERTHESIS\GIT\MASTERTHESIS_PRACTICAL\EVO_HUFF\EVO_HUFF\X64\DEBUG\VC142.PDB
^C:\USERS\KASI\DOCUMENTS\FH_TECHNIKUM_WIEN\MASTERTHESIS\GIT\MASTERTHESIS_PRACTICAL\EVO_HUFF\EVO_HUFF\INCLUDE\HUFFMAN\IO.C
C:\USERS\KASI\DOCUMENTS\FH_TECHNIKUM_WIEN\MASTERTHESIS\GIT\MASTERTHESIS_PRACTICAL\EVO_HUFF\EVO_HUFF\X64\DEBUG\VC142.PDB
^C:\USERS\KASI\DOCUMENTS\FH_TECHNIKUM_WIEN\MASTERTHESIS\GIT\MASTERTHESIS_PRACTICAL\EVO_HUFF\EVO_HUFF\INCLUDE\HUFFMAN\MALLOC.C
C:\USERS\KASI\DOCUMENTS\FH_TECHNIKUM_WIEN\MASTERTHESIS\GIT\MASTERTHESIS_PRACTICAL\EVO_HUFF\EVO_HUFF\X64\DEBUG\VC142.PDB
^C:\USERS\KASI\DOCUMENTS\FH_TECHNIKUM_WIEN\MASTERTHESIS\GIT\MASTERTHESIS_PRACTICAL\EVO_HUFF\EVO_HUFF\INCLUDE\HUFFMAN\SYMBOL.C
C:\USERS\KASI\DOCUMENTS\FH_TECHNIKUM_WIEN\MASTERTHESIS\GIT\MASTERTHESIS_PRACTICAL\EVO_HUFF\EVO_HUFF\X64\DEBUG\VC142.PDB
^C:\USERS\KASI\DOCUMENTS\FH_TECHNIKUM_WIEN\MASTERTHESIS\GIT\MASTERTHESIS_PRACTICAL\EVO_HUFF\EVO_HUFF\INCLUDE\HUFFMAN\TREE.C
C:\USERS\KASI\DOCUMENTS\FH_TECHNIKUM_WIEN\MASTERTHESIS\GIT\MASTERTHESIS_PRACTICAL\EVO_HUFF\EVO_HUFF\X64\DEBUG\VC142.PDB
^C:\USERS\KASI\DOCUMENTS\FH_TECHNIKUM_WIEN\MASTERTHESIS\GIT\MASTERTHESIS_PRACTICAL\EVO_HUFF\EVO_HUFF\EVO_HUFF.CPP
C:\USERS\KASI\DOCUMENTS\FH_TECHNIKUM_WIEN\MASTERTHESIS\GIT\MASTERTHESIS_PRACTICAL\EVO_HUFF\EVO_HUFF\X64\DEBUG\VC142.PDB
C:\USERS\KASI\DOCUMENTS\FH_TECHNIKUM_WIEN\MASTERTHESIS\GIT\MASTERTHESIS_PRACTICAL\EVO_HUFF\EVO_HUFF\X64\DEBUG\VC142.IDB
C:\USERS\KASI\DOCUMENTS\FH_TECHNIKUM_WIEN\MASTERTHESIS\GIT\MASTERTHESIS_PRACTICAL\EVO_HUFF\EVO_HUFF\X64\DEBUG\EVO_HUFF.OBJ
