^C:\USERS\KASI\DOCUMENTS\FH_TECHNIKUM_WIEN\MASTERTHESIS\GIT\MASTERTHESIS_PRACTICAL\EVO_HUFF\EVO_HUFF\X64\DEBUG\BUFIO.OBJ|C:\USERS\KASI\DOCUMENTS\FH_TECHNIKUM_WIEN\MASTERTHESIS\GIT\MASTERTHESIS_PRACTICAL\EVO_HUFF\EVO_HUFF\X64\DEBUG\CONFIG.OBJ|C:\USERS\KASI\DOCUMENTS\FH_TECHNIKUM_WIEN\MASTERTHESIS\GIT\MASTERTHESIS_PRACTICAL\EVO_HUFF\EVO_HUFF\X64\DEBUG\DECODER.OBJ|C:\USERS\KASI\DOCUMENTS\FH_TECHNIKUM_WIEN\MASTERTHESIS\GIT\MASTERTHESIS_PRACTICAL\EVO_HUFF\EVO_HUFF\X64\DEBUG\ENCODER.OBJ|C:\USERS\KASI\DOCUMENTS\FH_TECHNIKUM_WIEN\MASTERTHESIS\GIT\MASTERTHESIS_PRACTICAL\EVO_HUFF\EVO_HUFF\X64\DEBUG\ERRORS.OBJ|C:\USERS\KASI\DOCUMENTS\FH_TECHNIKUM_WIEN\MASTERTHESIS\GIT\MASTERTHESIS_PRACTICAL\EVO_HUFF\EVO_HUFF\X64\DEBUG\EVO_HUFF.OBJ|C:\USERS\KASI\DOCUMENTS\FH_TECHNIKUM_WIEN\MASTERTHESIS\GIT\MASTERTHESIS_PRACTICAL\EVO_HUFF\EVO_HUFF\X64\DEBUG\GA1DARRAYGENOME.OBJ|C:\USERS\KASI\DOCUMENTS\FH_TECHNIKUM_WIEN\MASTERTHESIS\GIT\MASTERTHESIS_PRACTICAL\EVO_HUFF\EVO_HUFF\X64\DEBUG\GA2DARRAYGENOME.OBJ|C:\USERS\KASI\DOCUMENTS\FH_TECHNIKUM_WIEN\MASTERTHESIS\GIT\MASTERTHESIS_PRACTICAL\EVO_HUFF\EVO_HUFF\X64\DEBUG\GA3DARRAYGENOME.OBJ|C:\USERS\KASI\DOCUMENTS\FH_TECHNIKUM_WIEN\MASTERTHESIS\GIT\MASTERTHESIS_PRACTICAL\EVO_HUFF\EVO_HUFF\X64\DEBUG\GAALLELE.OBJ|C:\USERS\KASI\DOCUMENTS\FH_TECHNIKUM_WIEN\MASTERTHESIS\GIT\MASTERTHESIS_PRACTICAL\EVO_HUFF\EVO_HUFF\X64\DEBUG\GALIST.OBJ|C:\USERS\KASI\DOCUMENTS\FH_TECHNIKUM_WIEN\MASTERTHESIS\GIT\MASTERTHESIS_PRACTICAL\EVO_HUFF\EVO_HUFF\X64\DEBUG\GALISTGENOME.OBJ|C:\USERS\KASI\DOCUMENTS\FH_TECHNIKUM_WIEN\MASTERTHESIS\GIT\MASTERTHESIS_PRACTICAL\EVO_HUFF\EVO_HUFF\X64\DEBUG\GAREALGENOME.OBJ|C:\USERS\KASI\DOCUMENTS\FH_TECHNIKUM_WIEN\MASTERTHESIS\GIT\MASTERTHESIS_PRACTICAL\EVO_HUFF\EVO_HUFF\X64\DEBUG\GASTRINGGENOME.OBJ|C:\USERS\KASI\DOCUMENTS\FH_TECHNIKUM_WIEN\MASTERTHESIS\GIT\MASTERTHESIS_PRACTICAL\EVO_HUFF\EVO_HUFF\X64\DEBUG\GATREE.OBJ|C:\USERS\KASI\DOCUMENTS\FH_TECHNIKUM_WIEN\MASTERTHESIS\GIT\MASTERTHESIS_PRACTICAL\EVO_HUFF\EVO_HUFF\X64\DEBUG\GATREEGENOME.OBJ|C:\USERS\KASI\DOCUMENTS\FH_TECHNIKUM_WIEN\MASTERTHESIS\GIT\MASTERTHESIS_PRACTICAL\EVO_HUFF\EVO_HUFF\X64\DEBUG\HISTOGRAM.OBJ|C:\USERS\KASI\DOCUMENTS\FH_TECHNIKUM_WIEN\MASTERTHESIS\GIT\MASTERTHESIS_PRACTICAL\EVO_HUFF\EVO_HUFF\X64\DEBUG\IO.OBJ|C:\USERS\KASI\DOCUMENTS\FH_TECHNIKUM_WIEN\MASTERTHESIS\GIT\MASTERTHESIS_PRACTICAL\EVO_HUFF\EVO_HUFF\X64\DEBUG\MALLOC.OBJ|C:\USERS\KASI\DOCUMENTS\FH_TECHNIKUM_WIEN\MASTERTHESIS\GIT\MASTERTHESIS_PRACTICAL\EVO_HUFF\EVO_HUFF\X64\DEBUG\SYMBOL.OBJ|C:\USERS\KASI\DOCUMENTS\FH_TECHNIKUM_WIEN\MASTERTHESIS\GIT\MASTERTHESIS_PRACTICAL\EVO_HUFF\EVO_HUFF\X64\DEBUG\TREE.OBJ
C:\TEMP\LIB\GA.LIB
C:\PROGRAM FILES (X86)\WINDOWS KITS\10\LIB\10.0.19041.0\UM\X64\KERNEL32.LIB
C:\PROGRAM FILES (X86)\WINDOWS KITS\10\LIB\10.0.19041.0\UM\X64\USER32.LIB
C:\PROGRAM FILES (X86)\WINDOWS KITS\10\LIB\10.0.19041.0\UM\X64\GDI32.LIB
C:\PROGRAM FILES (X86)\WINDOWS KITS\10\LIB\10.0.19041.0\UM\X64\WINSPOOL.LIB
C:\PROGRAM FILES (X86)\WINDOWS KITS\10\LIB\10.0.19041.0\UM\X64\COMDLG32.LIB
C:\PROGRAM FILES (X86)\WINDOWS KITS\10\LIB\10.0.19041.0\UM\X64\ADVAPI32.LIB
C:\PROGRAM FILES (X86)\WINDOWS KITS\10\LIB\10.0.19041.0\UM\X64\SHELL32.LIB
C:\PROGRAM FILES (X86)\WINDOWS KITS\10\LIB\10.0.19041.0\UM\X64\OLE32.LIB
C:\PROGRAM FILES (X86)\WINDOWS KITS\10\LIB\10.0.19041.0\UM\X64\OLEAUT32.LIB
C:\PROGRAM FILES (X86)\WINDOWS KITS\10\LIB\10.0.19041.0\UM\X64\UUID.LIB
C:\PROGRAM FILES (X86)\WINDOWS KITS\10\LIB\10.0.19041.0\UM\X64\ODBC32.LIB
C:\PROGRAM FILES (X86)\WINDOWS KITS\10\LIB\10.0.19041.0\UM\X64\ODBCCP32.LIB
C:\USERS\KASI\DOCUMENTS\FH_TECHNIKUM_WIEN\MASTERTHESIS\GIT\MASTERTHESIS_PRACTICAL\EVO_HUFF\EVO_HUFF\X64\DEBUG\GA1DARRAYGENOME.OBJ
C:\USERS\KASI\DOCUMENTS\FH_TECHNIKUM_WIEN\MASTERTHESIS\GIT\MASTERTHESIS_PRACTICAL\EVO_HUFF\EVO_HUFF\X64\DEBUG\GA2DARRAYGENOME.OBJ
C:\USERS\KASI\DOCUMENTS\FH_TECHNIKUM_WIEN\MASTERTHESIS\GIT\MASTERTHESIS_PRACTICAL\EVO_HUFF\EVO_HUFF\X64\DEBUG\GA3DARRAYGENOME.OBJ
C:\USERS\KASI\DOCUMENTS\FH_TECHNIKUM_WIEN\MASTERTHESIS\GIT\MASTERTHESIS_PRACTICAL\EVO_HUFF\EVO_HUFF\X64\DEBUG\GAALLELE.OBJ
C:\USERS\KASI\DOCUMENTS\FH_TECHNIKUM_WIEN\MASTERTHESIS\GIT\MASTERTHESIS_PRACTICAL\EVO_HUFF\EVO_HUFF\X64\DEBUG\GALIST.OBJ
C:\USERS\KASI\DOCUMENTS\FH_TECHNIKUM_WIEN\MASTERTHESIS\GIT\MASTERTHESIS_PRACTICAL\EVO_HUFF\EVO_HUFF\X64\DEBUG\GALISTGENOME.OBJ
C:\USERS\KASI\DOCUMENTS\FH_TECHNIKUM_WIEN\MASTERTHESIS\GIT\MASTERTHESIS_PRACTICAL\EVO_HUFF\EVO_HUFF\X64\DEBUG\GAREALGENOME.OBJ
C:\USERS\KASI\DOCUMENTS\FH_TECHNIKUM_WIEN\MASTERTHESIS\GIT\MASTERTHESIS_PRACTICAL\EVO_HUFF\EVO_HUFF\X64\DEBUG\GASTRINGGENOME.OBJ
C:\USERS\KASI\DOCUMENTS\FH_TECHNIKUM_WIEN\MASTERTHESIS\GIT\MASTERTHESIS_PRACTICAL\EVO_HUFF\EVO_HUFF\X64\DEBUG\GATREE.OBJ
C:\USERS\KASI\DOCUMENTS\FH_TECHNIKUM_WIEN\MASTERTHESIS\GIT\MASTERTHESIS_PRACTICAL\EVO_HUFF\EVO_HUFF\X64\DEBUG\GATREEGENOME.OBJ
C:\USERS\KASI\DOCUMENTS\FH_TECHNIKUM_WIEN\MASTERTHESIS\GIT\MASTERTHESIS_PRACTICAL\EVO_HUFF\EVO_HUFF\X64\DEBUG\EVO_HUFF.OBJ
C:\USERS\KASI\DOCUMENTS\FH_TECHNIKUM_WIEN\MASTERTHESIS\GIT\MASTERTHESIS_PRACTICAL\EVO_HUFF\EVO_HUFF\X64\DEBUG\BUFIO.OBJ
C:\USERS\KASI\DOCUMENTS\FH_TECHNIKUM_WIEN\MASTERTHESIS\GIT\MASTERTHESIS_PRACTICAL\EVO_HUFF\EVO_HUFF\X64\DEBUG\CONFIG.OBJ
C:\USERS\KASI\DOCUMENTS\FH_TECHNIKUM_WIEN\MASTERTHESIS\GIT\MASTERTHESIS_PRACTICAL\EVO_HUFF\EVO_HUFF\X64\DEBUG\DECODER.OBJ
C:\USERS\KASI\DOCUMENTS\FH_TECHNIKUM_WIEN\MASTERTHESIS\GIT\MASTERTHESIS_PRACTICAL\EVO_HUFF\EVO_HUFF\X64\DEBUG\ENCODER.OBJ
C:\USERS\KASI\DOCUMENTS\FH_TECHNIKUM_WIEN\MASTERTHESIS\GIT\MASTERTHESIS_PRACTICAL\EVO_HUFF\EVO_HUFF\X64\DEBUG\ERRORS.OBJ
C:\USERS\KASI\DOCUMENTS\FH_TECHNIKUM_WIEN\MASTERTHESIS\GIT\MASTERTHESIS_PRACTICAL\EVO_HUFF\EVO_HUFF\X64\DEBUG\HISTOGRAM.OBJ
C:\USERS\KASI\DOCUMENTS\FH_TECHNIKUM_WIEN\MASTERTHESIS\GIT\MASTERTHESIS_PRACTICAL\EVO_HUFF\EVO_HUFF\X64\DEBUG\IO.OBJ
C:\USERS\KASI\DOCUMENTS\FH_TECHNIKUM_WIEN\MASTERTHESIS\GIT\MASTERTHESIS_PRACTICAL\EVO_HUFF\EVO_HUFF\X64\DEBUG\MALLOC.OBJ
C:\USERS\KASI\DOCUMENTS\FH_TECHNIKUM_WIEN\MASTERTHESIS\GIT\MASTERTHESIS_PRACTICAL\EVO_HUFF\EVO_HUFF\X64\DEBUG\SYMBOL.OBJ
C:\USERS\KASI\DOCUMENTS\FH_TECHNIKUM_WIEN\MASTERTHESIS\GIT\MASTERTHESIS_PRACTICAL\EVO_HUFF\EVO_HUFF\X64\DEBUG\TREE.OBJ
C:\USERS\KASI\DOCUMENTS\FH_TECHNIKUM_WIEN\MASTERTHESIS\GIT\MASTERTHESIS_PRACTICAL\EVO_HUFF\EVO_HUFF\X64\DEBUG\EVO_HUFF.ILK
C:\WINDOWS\SYSTEM32\TZRES.DLL
C:\WINDOWS\GLOBALIZATION\SORTING\SORTDEFAULT.NLS
C:\PROGRAM FILES (X86)\MICROSOFT VISUAL STUDIO\2019\COMMUNITY\VC\TOOLS\MSVC\14.29.30133\LIB\X64\LIBCPMTD.LIB
C:\PROGRAM FILES (X86)\MICROSOFT VISUAL STUDIO\2019\COMMUNITY\VC\TOOLS\MSVC\14.29.30133\LIB\X64\LIBCMTD.LIB
C:\PROGRAM FILES (X86)\MICROSOFT VISUAL STUDIO\2019\COMMUNITY\VC\TOOLS\MSVC\14.29.30133\LIB\X64\OLDNAMES.LIB
C:\PROGRAM FILES (X86)\MICROSOFT VISUAL STUDIO\2019\COMMUNITY\VC\TOOLS\MSVC\14.29.30133\LIB\X64\LIBVCRUNTIMED.LIB
C:\PROGRAM FILES (X86)\WINDOWS KITS\10\LIB\10.0.19041.0\UCRT\X64\LIBUCRTD.LIB
